{
  "kind": "collectionType",
  "collectionName": "tokens",
  "info": {
    "name": "Token"
  },
  "options": {
    "increments": true,
    "timestamps": true
  },
  "attributes": {
    "Token": {
      "type": "string"
    },
    "user": {
      "plugin": "users-permissions",
      "model": "user"
    }
  }
}
